{
  "songscollection": [
    {
      "id": 1,
      "movie": "Anurodh",
      "title": "JabDardNahiTha",
      "length": "4.50",
      "singer": "Kishore"
    },
    {
      "id": 2,
      "movie": "KabhiKabhi",
      "title": "MePalDoPal",
      "length": "3.45",
      "singer": "Mukesh"
    },
    {
      "id": 3,
      "movie": "Aradhana",
      "title": "AajaTujhko",
      "length": "4.45",
      "singer": "Rafi"
    },
    {
      "id": 4,
      "movie": "MungaruMale",
      "title": "Anisuthidhe",
      "length": "5.54",
      "singer": "SanuNigam"
    },
    {
      "id": 5,
      "movie": "Aashique",
      "title": "EkSanamChahiya",
      "length": "3.25",
      "singer": "KumarSanu"
    },
    {
      "movie": "Sholey",
      "title": "Koi Haseena",
      "length": "4.9",
      "singer": "Kishore Kumar",
      "id": 6
    }
  ]
}